Simple document
…
Simple document

Load the airbnb data

data("nyc_airbnb")
nyc_airbnb %>% slice(1:1000)

## # A tibble: 1,000 x 17
##        id review_scores_l name  host_id host_name neighbourhood_g
##     <dbl>            <dbl> <chr>   <dbl> <chr>     <chr>           
##  1 7.95e6               10 City  1.19e5 Linda &  Bronx           
##  2 1.60e7               NA WATE  9.12e6 Collins   Bronx           
##  3 1.89e6               NA Quai  9.82e6 Steve     Bronx           
##  4 6.63e6               10 Larg  1.39e7 Arlene    Bronx           
##  5 5.56e6               10 Quai  2.88e7 Phoebe    Bronx           
##  6 9.15e6               10 Cozy  4.03e5 Diane     Bronx           
##  7 1.17e7               10 Cozy  5.67e7 Josue     Bronx           
##  8 7.15e5                9 2 Be  3.68e6 Enrique   Bronx           
##  9 1.79e7               10 Spac  1.13e7 Yahaira   Bronx           
## 10 1.82e5                9 PRIV  8.73e5 Christia Bronx           
## #  with 990 more rows, and 11 more variables: neighbourhood <chr>, lat <dbl>,
## #   long <dbl>, room_type <chr>, price <dbl>, minimum_nights <dbl>,
## #   number_of_reviews <dbl>, last_review <date>, reviews_per_month <dbl>,
## #   calculated_host_listings_count <dbl>, availability_365 <dbl>

nyc_airbnb %>% sample_n(1000) # view 1000 random rows of my dataset

## # A tibble: 1,000 x 17
##        id review_scores_l name  host_id host_name neighbourhood_g
##     <dbl>            <dbl> <chr>   <dbl> <chr>     <chr>           
##  1 3.64e6                8 BKLY  3.10e6 Kini      Brooklyn        
##  2 6.69e6                9 Char  8.81e6 Hilary    Brooklyn        
##  3 1.59e7               10 Oum   1.03e8 Casa      Brooklyn        
##  4 1.41e7               10 Empi  8.43e7 Natalie   Manhattan       
##  5 7.28e6                8 Mode  1.03e7 Sergey    Brooklyn        
##  6 1.79e7               NA Priv  1.23e8 Tristan   Brooklyn        
##  7 1.19e7                9 Cute  1.82e7 Darya     Manhattan       
##  8 1.49e7                9 One   1.61e6 Jennifer Brooklyn        
##  9 2.97e6               10 Grea  1.01e6 Mariano   Brooklyn        
## 10 5.51e6               10 West  7.03e6 Paul      Manhattan       
## #  with 990 more rows, and 11 more variables: neighbourhood <chr>, lat <dbl>,
## #   long <dbl>, room_type <chr>, price <dbl>, minimum_nights <dbl>,
## #   number_of_reviews <dbl>, last_review <date>, reviews_per_month <dbl>,
## #   calculated_host_listings_count <dbl>, availability_365 <dbl>

nyc_airbnb %>% sample_frac(size = .1)# view 10% of my dataset

## # A tibble: 4,075 x 17
##        id review_scores_l name  host_id host_name neighbourhood_g
##     <dbl>            <dbl> <chr>   <dbl> <chr>     <chr>           
##  1 1.19e7               10 Stay  6.35e7 Ingrid    Brooklyn        
##  2 1.75e7               10 3Flu  1.19e8 Na        Queens          
##  3 1.67e7               10 Spac  1.10e8 Maria     Brooklyn        
##  4 5.81e4                9 PRIV  2.77e5 Agnes     Manhattan       
##  5 7.49e5               10 Love  3.93e6 Kevin     Manhattan       
##  6 6.59e6               10 2 bd  3.46e6 Monika    Manhattan       
##  7 1.42e7               10 Grea  8.61e7 Franco    Brooklyn        
##  8 1.70e6                9 CHAR  8.29e6 Shane     Manhattan       
##  9 1.34e7                9 Zion  7.65e7 Devon     Brooklyn        
## 10 4.65e6               10 East  2.41e7 Joshua    Manhattan       
## #  with 4,065 more rows, and 11 more variables: neighbourhood <chr>,
## #   lat <dbl>, long <dbl>, room_type <chr>, price <dbl>, minimum_nights <dbl>,
## #   number_of_reviews <dbl>, last_review <date>, reviews_per_month <dbl>,
## #   calculated_host_listings_count <dbl>, availability_365 <dbl>
…
##fct_reorder(relevel, relevel))
nyc_airbnb %>% 
  filter(neighbourhood_group == "Manhattan") %>% 
  count(neighbourhood)

## # A tibble: 32 x 2
##    neighbourhood          n
##    <chr>              <int>
##  1 Battery Park City     65
##  2 Chelsea             1072
##  3 Chinatown            360
##  4 Civic Center          42
##  5 East Harlem         1048
##  6 East Village        1858
##  7 Financial District   391
##  8 Flatiron District     90
##  9 Gramercy             307
## 10 Greenwich Village    383
## #  with 22 more rows
…
